Interactive Visualizations – obertwwalker.github.io
…
Women in Science

I had a simple example for last week. Now I want to make it nicer. The data are essentially a table. Let me show it using pivot_wider.

How’s that done?

women_research <- readr::read_csv("https://raw.githubusercontent.com/rfordatascience/tidytuesday/master/data/2019/2019-04-16/women_research.csv")
women_research

# A tibble: 60 × 3
   country        field           percent_women
   <chr>          <chr>                   <dbl>
 1 Japan          Health sciences          0.24
 2 Chile          Health sciences          0.43
 3 United Kingdom Health sciences          0.45
 4 United States  Health sciences          0.46
 5 Mexico         Health sciences          0.46
 6 Denmark        Health sciences          0.47
 7 EU28           Health sciences          0.48
 8 France         Health sciences          0.48
 9 Canada         Health sciences          0.49
10 Australia      Health sciences          0.5 
# … with 50 more rows
…
